Statistical Machine Learning Final Project: Gun Violence Data
…
library(tidyverse)
#cleandata$participant_gender <- str_replace(cleandata$participant_gender, "||", ",")
#cleandata$participant_gender <- str_replace(cleandata$participant_gender, "::", "")
#cleandata$participant_gender <- str_replace(cleandata$participant_gender, "[0123]", "")

## # A tibble: 1,987 x 2
##    city_or_county     n
##    <chr>          <int>
##  1 Detroit          257
##  2 Chicago          240
##  3 Baltimore        122
##  4 Washington        93
##  5 Milwaukee         91
##  6 Houston           87
##  7 Saint Louis       84
##  8 New Orleans       72
##  9 Philadelphia      64
## 10 Boston            57
## # ... with 1,977 more rows
…
